<?xml version="1.0" encoding="UTF-8" standalone="no"?>
<!-- Created with Inkscape (http://www.inkscape.org/) -->

<svg
   xmlns:dc="http://purl.org/dc/elements/1.1/"
   xmlns:cc="http://creativecommons.org/ns#"
   xmlns:rdf="http://www.w3.org/1999/02/22-rdf-syntax-ns#"
   xmlns:svg="http://www.w3.org/2000/svg"
   xmlns="http://www.w3.org/2000/svg"
   xmlns:xlink="http://www.w3.org/1999/xlink"
   xmlns:sodipodi="http://sodipodi.sourceforge.net/DTD/sodipodi-0.dtd"
   xmlns:inkscape="http://www.inkscape.org/namespaces/inkscape"
   width="100mm"
   height="110mm"
   viewBox="0 0 100 110"
   version="1.1"
   id="svg3826"
   inkscape:version="0.92.3 (2405546, 2018-03-11)"
   sodipodi:docname="overview_swloc.svg">
  <defs
     id="defs3820">
    <clipPath
       clipPathUnits="userSpaceOnUse"
       id="clipPath2178">
      <path
         d="m 302,284.5 h 95.25 v 11.75 H 302 Z"
         id="path2176"
         inkscape:connector-curvature="0"
         style="clip-rule:evenodd" />
    </clipPath>
    <mask
       maskUnits="userSpaceOnUse"
       x="0"
       y="0"
       width="1"
       height="1"
       id="mask2166">
      <image
         width="1"
         height="1"
         style="image-rendering:optimizeSpeed"
         preserveAspectRatio="none"
         xlink:href="data:image/png;base64,iVBORw0KGgoAAAANSUhEUgAAAH4AAAAPCAAAAAAHNiQwAAAAAXNCSVQI5gpbmQAAABdJREFUOI1jYBgFo2AUjIJRMApGAc0BAAdxAAHaNnpfAAAAAElFTkSuQmCC"
         id="image2168" />
    </mask>
    <clipPath
       clipPathUnits="userSpaceOnUse"
       id="clipPath2146">
      <path
         d="m 182.25,284.5 h 95.25 v 11.75 h -95.25 z"
         id="path2144"
         inkscape:connector-curvature="0"
         style="clip-rule:evenodd" />
    </clipPath>
    <mask
       maskUnits="userSpaceOnUse"
       x="0"
       y="0"
       width="1"
       height="1"
       id="mask2134">
      <image
         width="1"
         height="1"
         style="image-rendering:optimizeSpeed"
         preserveAspectRatio="none"
         xlink:href="data:image/png;base64,iVBORw0KGgoAAAANSUhEUgAAAH4AAAAPCAAAAAAHNiQwAAAAAXNCSVQI5gpbmQAAABdJREFUOI1jYBgFo2AUjIJRMApGAc0BAAdxAAHaNnpfAAAAAElFTkSuQmCC"
         id="image2136" />
    </mask>
    <clipPath
       clipPathUnits="userSpaceOnUse"
       id="clipPath2114">
      <path
         d="m 302,234 h 95.25 v 12 H 302 Z"
         id="path2112"
         inkscape:connector-curvature="0"
         style="clip-rule:evenodd" />
    </clipPath>
    <mask
       maskUnits="userSpaceOnUse"
       x="0"
       y="0"
       width="1"
       height="1"
       id="mask2102">
      <image
         width="1"
         height="1"
         style="image-rendering:optimizeSpeed"
         preserveAspectRatio="none"
         xlink:href="data:image/png;base64,iVBORw0KGgoAAAANSUhEUgAAAH4AAAAPCAAAAAAHNiQwAAAAAXNCSVQI5gpbmQAAABdJREFUOI1jYBgFo2AUjIJRMApGAc0BAAdxAAHaNnpfAAAAAElFTkSuQmCC"
         id="image2104" />
    </mask>
    <clipPath
       clipPathUnits="userSpaceOnUse"
       id="clipPath2082">
      <path
         d="M 183.75,234 H 279 v 11.75 h -95.25 z"
         id="path2080"
         inkscape:connector-curvature="0"
         style="clip-rule:evenodd" />
    </clipPath>
    <mask
       maskUnits="userSpaceOnUse"
       x="0"
       y="0"
       width="1"
       height="1"
       id="mask2070">
      <image
         width="1"
         height="1"
         style="image-rendering:optimizeSpeed"
         preserveAspectRatio="none"
         xlink:href="data:image/png;base64,iVBORw0KGgoAAAANSUhEUgAAAH4AAAAPCAAAAAAHNiQwAAAAAXNCSVQI5gpbmQAAABdJREFUOI1jYBgFo2AUjIJRMApGAc0BAAdxAAHaNnpfAAAAAElFTkSuQmCC"
         id="image2072" />
    </mask>
    <clipPath
       clipPathUnits="userSpaceOnUse"
       id="clipPath2050">
      <path
         d="m 177,265.75 h 106.25 v 101 H 177 Z"
         id="path2048"
         inkscape:connector-curvature="0"
         style="clip-rule:evenodd" />
    </clipPath>
    <mask
       maskUnits="userSpaceOnUse"
       x="0"
       y="0"
       width="1"
       height="1"
       id="mask2038">
      <image
         width="1"
         height="1"
         style="image-rendering:optimizeSpeed"
         preserveAspectRatio="none"
         xlink:href="data:image/png;base64,iVBORw0KGgoAAAANSUhEUgAAAI0AAACGCAAAAADF8la6AAAAAXNCSVQI5gpbmQAAAClJREFUeJztwQENAAAAwqD3T20ON6AAAAAAAAAAAAAAAAAAAAAAAAB4N0pUAAG769TcAAAAAElFTkSuQmCC"
         id="image2040" />
    </mask>
    <clipPath
       clipPathUnits="userSpaceOnUse"
       id="clipPath2020">
      <path
         d="m 302,265 h 94.75 V 367 H 302 Z"
         id="path2018"
         inkscape:connector-curvature="0"
         style="clip-rule:evenodd" />
    </clipPath>
    <mask
       maskUnits="userSpaceOnUse"
       x="0"
       y="0"
       width="1"
       height="1"
       id="mask2008">
      <image
         width="1"
         height="1"
         style="image-rendering:optimizeSpeed"
         preserveAspectRatio="none"
         xlink:href="data:image/png;base64,iVBORw0KGgoAAAANSUhEUgAAAH4AAACHCAAAAAD11bKFAAAAAXNCSVQI5gpbmQAAACdJREFUeJztwTEBAAAAwqD1T20MH6AAAAAAAAAAAAAAAAAAAAAA4GBC+QABuyEchgAAAABJRU5ErkJggg=="
         id="image2010" />
    </mask>
    <clipPath
       clipPathUnits="userSpaceOnUse"
       id="clipPath1910">
      <path
         d="m 171.5,166.75 h 24.75 v 8 H 171.5 Z"
         id="path1908"
         inkscape:connector-curvature="0"
         style="clip-rule:evenodd" />
    </clipPath>
    <mask
       maskUnits="userSpaceOnUse"
       x="0"
       y="0"
       width="1"
       height="1"
       id="mask1898">
      <image
         width="1"
         height="1"
         style="image-rendering:optimizeSpeed"
         preserveAspectRatio="none"
         xlink:href="data:image/png;base64,iVBORw0KGgoAAAANSUhEUgAAACAAAAAKCAAAAADwJgN4AAAAAXNCSVQI5gpbmQAAAA1JREFUGJVjYBgF1AEAAUoAATnAfxMAAAAASUVORK5CYII="
         id="image1900" />
    </mask>
    <clipPath
       clipPathUnits="userSpaceOnUse"
       id="clipPath1878">
      <path
         d="m 166,155.75 h 57.5 v 21.5 H 166 Z"
         id="path1876"
         inkscape:connector-curvature="0"
         style="clip-rule:evenodd" />
    </clipPath>
    <mask
       maskUnits="userSpaceOnUse"
       x="0"
       y="0"
       width="1"
       height="1"
       id="mask1866">
      <image
         width="1"
         height="1"
         style="image-rendering:optimizeSpeed"
         preserveAspectRatio="none"
         xlink:href="data:image/png;base64,iVBORw0KGgoAAAANSUhEUgAAAEwAAAAcCAAAAADucgYAAAAAAXNCSVQI5gpbmQAAABlJREFUSIljYBgFo2AUjIJRMApGwSigHQAACGwAAbXDFLAAAAAASUVORK5CYII="
         id="image1868" />
    </mask>
    <clipPath
       clipPathUnits="userSpaceOnUse"
       id="clipPath1828">
      <path
         d="m 170.75,132.75 h 24.75 v 8 h -24.75 z"
         id="path1826"
         inkscape:connector-curvature="0"
         style="clip-rule:evenodd" />
    </clipPath>
    <mask
       maskUnits="userSpaceOnUse"
       x="0"
       y="0"
       width="1"
       height="1"
       id="mask1816">
      <image
         width="1"
         height="1"
         style="image-rendering:optimizeSpeed"
         preserveAspectRatio="none"
         xlink:href="data:image/png;base64,iVBORw0KGgoAAAANSUhEUgAAACEAAAAKCAAAAAAf5GhGAAAAAXNCSVQI5gpbmQAAAA1JREFUGJVjYBgF1AYAAVQAATJ9wdEAAAAASUVORK5CYII="
         id="image1818" />
    </mask>
    <clipPath
       clipPathUnits="userSpaceOnUse"
       id="clipPath1796">
      <path
         d="M 165.25,121.75 H 223 v 21.5 h -57.75 z"
         id="path1794"
         inkscape:connector-curvature="0"
         style="clip-rule:evenodd" />
    </clipPath>
    <mask
       maskUnits="userSpaceOnUse"
       x="0"
       y="0"
       width="1"
       height="1"
       id="mask1784">
      <image
         width="1"
         height="1"
         style="image-rendering:optimizeSpeed"
         preserveAspectRatio="none"
         xlink:href="data:image/png;base64,iVBORw0KGgoAAAANSUhEUgAAAEwAAAAcCAAAAADucgYAAAAAAXNCSVQI5gpbmQAAABlJREFUSIljYBgFo2AUjIJRMApGwSigHQAACGwAAbXDFLAAAAAASUVORK5CYII="
         id="image1786" />
    </mask>
    <clipPath
       clipPathUnits="userSpaceOnUse"
       id="clipPath1756">
      <path
         d="m 377.5,157.75 h 30.25 v 4.5 H 377.5 Z"
         id="path1754"
         inkscape:connector-curvature="0"
         style="clip-rule:evenodd" />
    </clipPath>
    <mask
       maskUnits="userSpaceOnUse"
       x="0"
       y="0"
       width="1"
       height="1"
       id="mask1744">
      <image
         width="1"
         height="1"
         style="image-rendering:optimizeSpeed"
         preserveAspectRatio="none"
         xlink:href="data:image/png;base64,iVBORw0KGgoAAAANSUhEUgAAACgAAAAFCAAAAAASp/FZAAAAAXNCSVQI5gpbmQAAAAxJREFUCJljYBhGAAAAzQAB7qw+rwAAAABJRU5ErkJggg=="
         id="image1746" />
    </mask>
    <clipPath
       clipPathUnits="userSpaceOnUse"
       id="clipPath1724">
      <path
         d="m 377.5,138.75 h 30.25 v 4.5 H 377.5 Z"
         id="path1722"
         inkscape:connector-curvature="0"
         style="clip-rule:evenodd" />
    </clipPath>
    <mask
       maskUnits="userSpaceOnUse"
       x="0"
       y="0"
       width="1"
       height="1"
       id="mask1712">
      <image
         width="1"
         height="1"
         style="image-rendering:optimizeSpeed"
         preserveAspectRatio="none"
         xlink:href="data:image/png;base64,iVBORw0KGgoAAAANSUhEUgAAACgAAAAFCAAAAAASp/FZAAAAAXNCSVQI5gpbmQAAAAxJREFUCJljYBhGAAAAzQAB7qw+rwAAAABJRU5ErkJggg=="
         id="image1714" />
    </mask>
    <clipPath
       clipPathUnits="userSpaceOnUse"
       id="clipPath1690">
      <path
         d="m 334.5,158.75 h 22 V 165 h -22 z"
         id="path1688"
         inkscape:connector-curvature="0"
         style="clip-rule:evenodd" />
    </clipPath>
    <mask
       maskUnits="userSpaceOnUse"
       x="0"
       y="0"
       width="1"
       height="1"
       id="mask1678">
      <image
         width="1"
         height="1"
         style="image-rendering:optimizeSpeed"
         preserveAspectRatio="none"
         xlink:href="data:image/png;base64,iVBORw0KGgoAAAANSUhEUgAAAB0AAAAICAAAAAAg46v7AAAAAXNCSVQI5gpbmQAAAAxJREFUCJljYBhZAAAA8AABU4mkSwAAAABJRU5ErkJggg=="
         id="image1680" />
    </mask>
    <clipPath
       clipPathUnits="userSpaceOnUse"
       id="clipPath1658">
      <path
         d="m 311.5,158.75 h 22.25 V 165 H 311.5 Z"
         id="path1656"
         inkscape:connector-curvature="0"
         style="clip-rule:evenodd" />
    </clipPath>
    <mask
       maskUnits="userSpaceOnUse"
       x="0"
       y="0"
       width="1"
       height="1"
       id="mask1646">
      <image
         width="1"
         height="1"
         style="image-rendering:optimizeSpeed"
         preserveAspectRatio="none"
         xlink:href="data:image/png;base64,iVBORw0KGgoAAAANSUhEUgAAAB0AAAAICAAAAAAg46v7AAAAAXNCSVQI5gpbmQAAAAxJREFUCJljYBhZAAAA8AABU4mkSwAAAABJRU5ErkJggg=="
         id="image1648" />
    </mask>
    <clipPath
       clipPathUnits="userSpaceOnUse"
       id="clipPath1636">
      <path
         d="M -3.0518e-5,842 H 595.25 V 0 H -6.1035e-5"
         id="path1634"
         inkscape:connector-curvature="0"
         style="clip-rule:evenodd" />
    </clipPath>
    <clipPath
       clipPathUnits="userSpaceOnUse"
       id="clipPath1616">
      <path
         d="m 318.25,132.75 h 31.25 v 8 h -31.25 z"
         id="path1614"
         inkscape:connector-curvature="0"
         style="clip-rule:evenodd" />
    </clipPath>
    <mask
       maskUnits="userSpaceOnUse"
       x="0"
       y="0"
       width="1"
       height="1"
       id="mask1604">
      <image
         width="1"
         height="1"
         style="image-rendering:optimizeSpeed"
         preserveAspectRatio="none"
         xlink:href="data:image/png;base64,iVBORw0KGgoAAAANSUhEUgAAACkAAAAKCAAAAAAMMyiyAAAAAXNCSVQI5gpbmQAAAA5JREFUGJVjYBgFgx0AAAGkAAFoAGCuAAAAAElFTkSuQmCC"
         id="image1606" />
    </mask>
    <clipPath
       clipPathUnits="userSpaceOnUse"
       id="clipPath1590">
      <path
         d="M -6.1035e-5,842 H 595.25 V -6.1035e-5 L -6.1035e-5,0"
         id="path1588"
         inkscape:connector-curvature="0"
         style="clip-rule:evenodd" />
    </clipPath>
    <clipPath
       clipPathUnits="userSpaceOnUse"
       id="clipPath1566">
      <path
         d="M 269.75,158.75 H 292 V 165 h -22.25 z"
         id="path1564"
         inkscape:connector-curvature="0"
         style="clip-rule:evenodd" />
    </clipPath>
    <mask
       maskUnits="userSpaceOnUse"
       x="0"
       y="0"
       width="1"
       height="1"
       id="mask1554">
      <image
         width="1"
         height="1"
         style="image-rendering:optimizeSpeed"
         preserveAspectRatio="none"
         xlink:href="data:image/png;base64,iVBORw0KGgoAAAANSUhEUgAAAB0AAAAICAAAAAAg46v7AAAAAXNCSVQI5gpbmQAAAAxJREFUCJljYBhZAAAA8AABU4mkSwAAAABJRU5ErkJggg=="
         id="image1556" />
    </mask>
    <clipPath
       clipPathUnits="userSpaceOnUse"
       id="clipPath1534">
      <path
         d="m 247,158.75 h 22 V 165 h -22 z"
         id="path1532"
         inkscape:connector-curvature="0"
         style="clip-rule:evenodd" />
    </clipPath>
    <mask
       maskUnits="userSpaceOnUse"
       x="0"
       y="0"
       width="1"
       height="1"
       id="mask1522">
      <image
         width="1"
         height="1"
         style="image-rendering:optimizeSpeed"
         preserveAspectRatio="none"
         xlink:href="data:image/png;base64,iVBORw0KGgoAAAANSUhEUgAAAB0AAAAICAAAAAAg46v7AAAAAXNCSVQI5gpbmQAAAAxJREFUCJljYBhZAAAA8AABU4mkSwAAAABJRU5ErkJggg=="
         id="image1524" />
    </mask>
    <clipPath
       clipPathUnits="userSpaceOnUse"
       id="clipPath1512">
      <path
         d="M -3.0518e-5,842 H 595.25 V 6.1035e-5 H -3.0518e-5"
         id="path1510"
         inkscape:connector-curvature="0"
         style="clip-rule:evenodd" />
    </clipPath>
    <clipPath
       clipPathUnits="userSpaceOnUse"
       id="clipPath1492">
      <path
         d="m 254,132.5 h 31 v 8 h -31 z"
         id="path1490"
         inkscape:connector-curvature="0"
         style="clip-rule:evenodd" />
    </clipPath>
    <mask
       maskUnits="userSpaceOnUse"
       x="0"
       y="0"
       width="1"
       height="1"
       id="mask1480">
      <image
         width="1"
         height="1"
         style="image-rendering:optimizeSpeed"
         preserveAspectRatio="none"
         xlink:href="data:image/png;base64,iVBORw0KGgoAAAANSUhEUgAAACkAAAAKCAAAAAAMMyiyAAAAAXNCSVQI5gpbmQAAAA5JREFUGJVjYBgFgx0AAAGkAAFoAGCuAAAAAElFTkSuQmCC"
         id="image1482" />
    </mask>
    <clipPath
       clipPathUnits="userSpaceOnUse"
       id="clipPath1466">
      <path
         d="M -3.0518e-5,842 H 595.25 V -6.1035e-5 L -3.0518e-5,0"
         id="path1464"
         inkscape:connector-curvature="0"
         style="clip-rule:evenodd" />
    </clipPath>
    <clipPath
       clipPathUnits="userSpaceOnUse"
       id="clipPath1392">
      <path
         d="M 298.25,385.75 H 400 V 413 H 298.25 Z"
         id="path1390"
         inkscape:connector-curvature="0"
         style="clip-rule:evenodd" />
    </clipPath>
    <mask
       maskUnits="userSpaceOnUse"
       x="0"
       y="0"
       width="1"
       height="1"
       id="mask1380">
      <image
         width="1"
         height="1"
         style="image-rendering:optimizeSpeed"
         preserveAspectRatio="none"
         xlink:href="data:image/png;base64,iVBORw0KGgoAAAANSUhEUgAAAIcAAAAkCAAAAACGBHaWAAAAAXNCSVQI5gpbmQAAABtJREFUWIXtwQEBAAAAgiD/r25IQAEAAADArwETIAAB349CJgAAAABJRU5ErkJggg=="
         id="image1382" />
    </mask>
    <clipPath
       clipPathUnits="userSpaceOnUse"
       id="clipPath1362">
      <path
         d="m 173.5,199.25 h 226.25 v 19.5 H 173.5 Z"
         id="path1360"
         inkscape:connector-curvature="0"
         style="clip-rule:evenodd" />
    </clipPath>
    <mask
       maskUnits="userSpaceOnUse"
       x="0"
       y="0"
       width="1"
       height="1"
       id="mask1350">
      <image
         width="1"
         height="1"
         style="image-rendering:optimizeSpeed"
         preserveAspectRatio="none"
         xlink:href="data:image/png;base64,iVBORw0KGgoAAAANSUhEUgAAAS0AAAAZCAAAAABBFCc9AAAAAXNCSVQI5gpbmQAAAB5JREFUWIXtwTEBAAAAwqD1T20IX6AAAAAAAAAA+A0dfgABoJkGsQAAAABJRU5ErkJggg=="
         id="image1352" />
    </mask>
    <clipPath
       clipPathUnits="userSpaceOnUse"
       id="clipPath1330">
      <path
         d="m 173.5,426 h 226.25 v 11.5 H 173.5 Z"
         id="path1328"
         inkscape:connector-curvature="0"
         style="clip-rule:evenodd" />
    </clipPath>
    <mask
       maskUnits="userSpaceOnUse"
       x="0"
       y="0"
       width="1"
       height="1"
       id="mask1318">
      <image
         width="1"
         height="1"
         style="image-rendering:optimizeSpeed"
         preserveAspectRatio="none"
         xlink:href="data:image/png;base64,iVBORw0KGgoAAAANSUhEUgAAAS0AAAAPCAAAAACUm8a7AAAAAXNCSVQI5gpbmQAAABtJREFUWIXtwTEBAAAAwqD1T20ND6AAAAAA+DIRsgAB5V334wAAAABJRU5ErkJggg=="
         id="image1320" />
    </mask>
    <clipPath
       clipPathUnits="userSpaceOnUse"
       id="clipPath1300">
      <path
         d="m 173.5,385.75 h 113 V 413 h -113 z"
         id="path1298"
         inkscape:connector-curvature="0"
         style="clip-rule:evenodd" />
    </clipPath>
    <clipPath
       clipPathUnits="userSpaceOnUse"
       id="clipPath1280">
      <path
         d="m 173.5,385.75 h 113 V 413 h -113 z"
         id="path1278"
         inkscape:connector-curvature="0"
         style="clip-rule:evenodd" />
    </clipPath>
    <mask
       maskUnits="userSpaceOnUse"
       x="0"
       y="0"
       width="1"
       height="1"
       id="mask1268">
      <image
         width="1"
         height="1"
         style="image-rendering:optimizeSpeed"
         preserveAspectRatio="none"
         xlink:href="data:image/png;base64,iVBORw0KGgoAAAANSUhEUgAAAJYAAAAkCAAAAABOaJxAAAAAAXNCSVQI5gpbmQAAABxJREFUWIXtwTEBAAAAwqD1T+1vBqAAAAAAAHgDFTwAAT/mFaYAAAAASUVORK5CYII="
         id="image1270" />
    </mask>
  </defs>
  <sodipodi:namedview
     id="base"
     pagecolor="#ffffff"
     bordercolor="#666666"
     borderopacity="1.0"
     inkscape:pageopacity="0.0"
     inkscape:pageshadow="2"
     inkscape:zoom="1.979899"
     inkscape:cx="112.98541"
     inkscape:cy="225.36802"
     inkscape:document-units="mm"
     inkscape:current-layer="layer1"
     showgrid="false"
     inkscape:window-width="1920"
     inkscape:window-height="1176"
     inkscape:window-x="4480"
     inkscape:window-y="0"
     inkscape:window-maximized="1" />
  <metadata
     id="metadata3823">
    <rdf:RDF>
      <cc:Work
         rdf:about="">
        <dc:format>image/svg+xml</dc:format>
        <dc:type
           rdf:resource="http://purl.org/dc/dcmitype/StillImage" />
        <dc:title></dc:title>
      </cc:Work>
    </rdf:RDF>
  </metadata>
  <g
     inkscape:label="Calque 1"
     inkscape:groupmode="layer"
     id="layer1"
     transform="translate(0,-187)">
    <path
       d="m 2.9963508,201.50082 c 0,-3.96883 4.077302,-7.18229 9.1130472,-7.18229 h 70.657393 c 5.035724,0 9.120885,3.21346 9.120885,7.18229 v 56.95048 c 0,3.96883 -4.085161,7.18229 -9.120885,7.18229 H 12.109398 c -5.0357452,0 -9.1130472,-3.21346 -9.1130472,-7.18229 z"
       style="fill:#ffffff;fill-opacity:1;stroke:#1229b5;stroke-width:0.59152341;stroke-linecap:butt;stroke-linejoin:miter;stroke-miterlimit:8;stroke-dasharray:none;stroke-opacity:1"
       id="path2034-3"
       inkscape:connector-curvature="0" />
    <path
       d="M 7.3918849,205.48333 H 87.225493 v -6.7176 H 7.3918849 Z"
       style="fill:#ffb0b0;fill-opacity:1;stroke:#ff0000;stroke-width:0.2;stroke-linecap:butt;stroke-linejoin:miter;stroke-miterlimit:10;stroke-dasharray:none;stroke-opacity:1"
       id="path1314"
       inkscape:connector-curvature="0" />
    <path
       d="M 7.3918849,262.26275 H 87.225493 v -9.46926 H 7.3918849 Z"
       style="fill:#ff9966;fill-opacity:1;fill-rule:evenodd;stroke:none;stroke-width:0.35277775"
       id="path1344"
       inkscape:connector-curvature="0" />
    <path
       d="M 7.3918849,262.26275 H 87.225493 v -9.46926 H 7.3918849 Z"
       style="fill:none;stroke:#ff3300;stroke-width:0.2;stroke-linecap:butt;stroke-linejoin:miter;stroke-miterlimit:10;stroke-dasharray:none;stroke-opacity:1"
       id="path1346"
       inkscape:connector-curvature="0" />
    <g
       transform="matrix(0.35277777,0,0,-0.35277777,-53.836221,331.18847)"
       id="g1356">
      <g
         id="g1358"
         clip-path="url(#clipPath1362)">
        <text
           transform="scale(1,-1)"
           style="font-variant:normal;font-weight:normal;font-size:11px;font-family:Tahoma;-inkscape-font-specification:Tahoma;writing-mode:lr-tb;fill:#000000;fill-opacity:1;fill-rule:nonzero;stroke:none"
           id="text1366"
           x="275.85001"
           y="-206.8">
          <tspan
             x="275.85001 282.08701 290.32599 295.80399 301.81 306.815"
             y="-206.8"
             sodipodi:role="line"
             id="tspan1364">SwLoc</tspan>
        </text>
      </g>
    </g>
    <path
       d="m 7.3601349,212.89863 c 0,-2.26131 1.8309201,-4.09223 4.0922301,-4.09223 h 31.728828 c 2.2613,0 4.09575,1.83092 4.09575,4.09223 v 32.44849 c 0,2.26131 -1.83445,4.09223 -4.09575,4.09223 H 11.452365 c -2.26131,0 -4.0922301,-1.83092 -4.0922301,-4.09223 z"
       style="fill:#ffffff;fill-opacity:1;stroke:#7f7f7f;stroke-width:0.2;stroke-linecap:butt;stroke-linejoin:miter;stroke-miterlimit:8;stroke-dasharray:none;stroke-opacity:1"
       id="path2034"
       inkscape:connector-curvature="0" />
    <path
       d="m 13.240945,221.58049 c 0,-1.38995 0.93839,-2.51531 2.09903,-2.51531 1.15711,0 2.09902,1.12536 2.09902,2.51531 0,1.38994 -0.94191,2.51883 -2.09902,2.51883 -1.16064,0 -2.09903,-1.12889 -2.09903,-2.51883 z"
       style="fill:#ffd320;fill-opacity:1;fill-rule:evenodd;stroke:none;stroke-width:0.35277775"
       id="path1406"
       inkscape:connector-curvature="0" />
    <path
       d="m 13.240945,221.58049 c 0,-1.38995 0.93839,-2.51531 2.09903,-2.51531 1.15711,0 2.09902,1.12536 2.09902,2.51531 0,1.38994 -0.94191,2.51883 -2.09902,2.51883 -1.16064,0 -2.09903,-1.12889 -2.09903,-2.51883 z"
       style="fill:none;stroke:#000000;stroke-width:0.26458332;stroke-linecap:butt;stroke-linejoin:round;stroke-miterlimit:10;stroke-dasharray:none;stroke-opacity:1"
       id="path1408"
       inkscape:connector-curvature="0" />
    <path
       d="m 19.538025,214.03104 c 0,-1.38994 0.94192,-2.5153 2.09903,-2.5153 1.16064,0 2.09903,1.12536 2.09903,2.5153 0,1.38995 -0.93839,2.51884 -2.09903,2.51884 -1.15711,0 -2.09903,-1.12889 -2.09903,-2.51884 z"
       style="fill:#ffd320;fill-opacity:1;fill-rule:evenodd;stroke:none;stroke-width:0.35277775"
       id="path1410"
       inkscape:connector-curvature="0" />
    <path
       d="m 19.538025,214.03104 c 0,-1.38994 0.94192,-2.5153 2.09903,-2.5153 1.16064,0 2.09903,1.12536 2.09903,2.5153 0,1.38995 -0.93839,2.51884 -2.09903,2.51884 -1.15711,0 -2.09903,-1.12889 -2.09903,-2.51884 z"
       style="fill:none;stroke:#000000;stroke-width:0.26458332;stroke-linecap:butt;stroke-linejoin:round;stroke-miterlimit:10;stroke-dasharray:none;stroke-opacity:1"
       id="path1412"
       inkscape:connector-curvature="0" />
    <path
       d="m 19.538025,229.12993 c 0,-1.38994 0.94192,-2.5153 2.09903,-2.5153 1.16064,0 2.09903,1.12536 2.09903,2.5153 0,1.38995 -0.93839,2.51531 -2.09903,2.51531 -1.15711,0 -2.09903,-1.12536 -2.09903,-2.51531 z"
       style="fill:#ffd320;fill-opacity:1;fill-rule:evenodd;stroke:none;stroke-width:0.35277775"
       id="path1414"
       inkscape:connector-curvature="0" />
    <path
       d="m 19.538025,229.12993 c 0,-1.38994 0.94192,-2.5153 2.09903,-2.5153 1.16064,0 2.09903,1.12536 2.09903,2.5153 0,1.38995 -0.93839,2.51531 -2.09903,2.51531 -1.15711,0 -2.09903,-1.12536 -2.09903,-2.51531 z"
       style="fill:none;stroke:#000000;stroke-width:0.26458332;stroke-linecap:butt;stroke-linejoin:round;stroke-miterlimit:10;stroke-dasharray:none;stroke-opacity:1"
       id="path1416"
       inkscape:connector-curvature="0" />
    <path
       d="m 27.937665,214.03104 c 0,-1.38994 0.93839,-2.5153 2.09903,-2.5153 1.16064,0 2.09903,1.12536 2.09903,2.5153 0,1.38995 -0.93839,2.51884 -2.09903,2.51884 -1.16064,0 -2.09903,-1.12889 -2.09903,-2.51884 z"
       style="fill:#ffd320;fill-opacity:1;fill-rule:evenodd;stroke:none;stroke-width:0.35277775"
       id="path1418"
       inkscape:connector-curvature="0" />
    <path
       d="m 27.937665,214.03104 c 0,-1.38994 0.93839,-2.5153 2.09903,-2.5153 1.16064,0 2.09903,1.12536 2.09903,2.5153 0,1.38995 -0.93839,2.51884 -2.09903,2.51884 -1.16064,0 -2.09903,-1.12889 -2.09903,-2.51884 z"
       style="fill:none;stroke:#000000;stroke-width:0.26458332;stroke-linecap:butt;stroke-linejoin:round;stroke-miterlimit:10;stroke-dasharray:none;stroke-opacity:1"
       id="path1420"
       inkscape:connector-curvature="0" />
    <path
       d="m 36.333775,214.03104 c 0,-1.38994 0.94192,-2.5153 2.10256,-2.5153 1.15711,0 2.09902,1.12536 2.09902,2.5153 0,1.38995 -0.94191,2.51884 -2.09902,2.51884 -1.16064,0 -2.10256,-1.12889 -2.10256,-2.51884 z"
       style="fill:#ffd320;fill-opacity:1;fill-rule:evenodd;stroke:none;stroke-width:0.35277775"
       id="path1422"
       inkscape:connector-curvature="0" />
    <path
       d="m 36.333775,214.03104 c 0,-1.38994 0.94192,-2.5153 2.10256,-2.5153 1.15711,0 2.09902,1.12536 2.09902,2.5153 0,1.38995 -0.94191,2.51884 -2.09902,2.51884 -1.16064,0 -2.10256,-1.12889 -2.10256,-2.51884 z"
       style="fill:none;stroke:#000000;stroke-width:0.26458332;stroke-linecap:butt;stroke-linejoin:round;stroke-miterlimit:10;stroke-dasharray:none;stroke-opacity:1"
       id="path1424"
       inkscape:connector-curvature="0" />
    <path
       d="m 27.937665,229.12993 c 0,-1.38994 0.93839,-2.5153 2.09903,-2.5153 1.16064,0 2.09903,1.12536 2.09903,2.5153 0,1.38995 -0.93839,2.51531 -2.09903,2.51531 -1.16064,0 -2.09903,-1.12536 -2.09903,-2.51531 z"
       style="fill:#ffd320;fill-opacity:1;fill-rule:evenodd;stroke:none;stroke-width:0.35277775"
       id="path1426"
       inkscape:connector-curvature="0" />
    <path
       d="m 27.937665,229.12993 c 0,-1.38994 0.93839,-2.5153 2.09903,-2.5153 1.16064,0 2.09903,1.12536 2.09903,2.5153 0,1.38995 -0.93839,2.51531 -2.09903,2.51531 -1.16064,0 -2.09903,-1.12536 -2.09903,-2.51531 z"
       style="fill:none;stroke:#000000;stroke-width:0.26458332;stroke-linecap:butt;stroke-linejoin:round;stroke-miterlimit:10;stroke-dasharray:none;stroke-opacity:1"
       id="path1428"
       inkscape:connector-curvature="0" />
    <path
       d="m 16.923945,219.88363 2.1978,-2.63525 -0.20108,-0.16934 -2.20133,2.63525 z m 2.68464,-1.77095 0.54328,-2.30364 -2.16959,0.94545 z"
       style="fill:#000000;fill-opacity:1;fill-rule:nonzero;stroke:none;stroke-width:0.35277775"
       id="path1430"
       inkscape:connector-curvature="0" />
    <path
       d="m 23.736085,213.89346 2.44122,0.004 v 0.26458 l -2.44122,-0.004 z m 2.08844,-0.92075 2.11667,1.05833 -2.11667,1.05834 z"
       style="fill:#000000;fill-opacity:1;fill-rule:nonzero;stroke:none;stroke-width:0.35277775"
       id="path1432"
       inkscape:connector-curvature="0" />
    <path
       d="m 32.135725,213.89346 2.44122,0.004 v 0.26458 l -2.44122,-0.004 z m 2.08844,-0.92075 2.11667,1.05833 -2.1202,1.05834 z"
       style="fill:#000000;fill-opacity:1;fill-rule:nonzero;stroke:none;stroke-width:0.35277775"
       id="path1434"
       inkscape:connector-curvature="0" />
    <path
       d="m 16.923945,223.27382 2.1978,2.63525 -0.20108,0.16933 -2.20133,-2.63525 z m 2.68464,1.77094 0.54328,2.30364 -2.16959,-0.94544 z"
       style="fill:#000000;fill-opacity:1;fill-rule:nonzero;stroke:none;stroke-width:0.35277775"
       id="path1436"
       inkscape:connector-curvature="0" />
    <path
       d="m 23.736085,228.99235 2.44122,0.004 v 0.26458 l -2.44122,-0.004 z m 2.08844,-0.92428 2.11667,1.06186 -2.11667,1.05481 z"
       style="fill:#000000;fill-opacity:1;fill-rule:nonzero;stroke:none;stroke-width:0.35277775"
       id="path1438"
       inkscape:connector-curvature="0" />
    <path
       d="m 31.631245,227.41896 5.96548,-9.31333 -0.22578,-0.14464 -5.96195,9.31686 z m 6.55461,-8.51606 0.25048,-2.35302 -2.03553,1.21002 z"
       style="fill:#000000;fill-opacity:1;fill-rule:nonzero;stroke:none;stroke-width:0.35277775"
       id="path1440"
       inkscape:connector-curvature="0" />
    <path
       d="m 36.333775,229.12993 c 0,-1.38994 0.94192,-2.5153 2.10256,-2.5153 1.15711,0 2.09902,1.12536 2.09902,2.5153 0,1.38995 -0.94191,2.51531 -2.09902,2.51531 -1.16064,0 -2.10256,-1.12536 -2.10256,-2.51531 z"
       style="fill:#ffd320;fill-opacity:1;fill-rule:evenodd;stroke:none;stroke-width:0.35277775"
       id="path1442"
       inkscape:connector-curvature="0" />
    <path
       d="m 36.333775,229.12993 c 0,-1.38994 0.94192,-2.5153 2.10256,-2.5153 1.15711,0 2.09902,1.12536 2.09902,2.5153 0,1.38995 -0.94191,2.51531 -2.09902,2.51531 -1.16064,0 -2.10256,-1.12536 -2.10256,-2.51531 z"
       style="fill:none;stroke:#000000;stroke-width:0.26458332;stroke-linecap:butt;stroke-linejoin:round;stroke-miterlimit:10;stroke-dasharray:none;stroke-opacity:1"
       id="path1444"
       inkscape:connector-curvature="0" />
    <path
       d="m 32.135725,228.99235 2.44122,0.004 v 0.26458 l -2.44122,-0.004 z m 2.08844,-0.92428 2.11667,1.06186 -2.1202,1.05481 z"
       style="fill:#000000;fill-opacity:1;fill-rule:nonzero;stroke:none;stroke-width:0.35277775"
       id="path1446"
       inkscape:connector-curvature="0" />
    <path
       d="m 31.638305,215.7526 4.67783,9.9448 -0.23989,0.11289 -4.67783,-9.9448 z m 5.36575,9.22866 -0.0564,2.36714 -1.85914,-1.46402 z"
       style="fill:#000000;fill-opacity:1;fill-rule:nonzero;stroke:none;stroke-width:0.35277775"
       id="path1448"
       inkscape:connector-curvature="0" />
    <path
       d="m 40.535355,213.89346 2.554118,0.0318 -0.004,0.26458 -2.554108,-0.0318 z m 2.211918,-0.89958 2.10256,1.08302 -2.12725,1.03364 z"
       style="fill:#000000;fill-opacity:1;fill-rule:nonzero;stroke:none;stroke-width:0.35277775"
       id="path1450"
       inkscape:connector-curvature="0" />
    <path
       d="m 40.535355,229.26399 2.310698,-0.0141 -0.004,-0.26459 -2.307168,0.0141 z m 1.961448,0.91369 2.10961,-1.06892 -2.12019,-1.04775 z"
       style="fill:#000000;fill-opacity:1;fill-rule:nonzero;stroke:none;stroke-width:0.35277775"
       id="path1452"
       inkscape:connector-curvature="0" />
    <path
       d="m 8.930005,221.4041 2.55058,0.0282 -0.004,0.26458 -2.55058,-0.0282 z m 2.20838,-0.89959 2.10609,1.08303 -2.13078,1.03364 z"
       style="fill:#000000;fill-opacity:1;fill-rule:nonzero;stroke:none;stroke-width:0.35277775"
       id="path1454"
       inkscape:connector-curvature="0" />
    <path
       d="m 2.4847549,271.38561 c 0,-1.45344 1.17827,-2.62819 2.62819,-2.62819 H 89.437413 c 1.45344,0 2.62819,1.17475 2.62819,2.62819 V 291.755 c 0,1.45344 -1.17475,2.63172 -2.62819,2.63172 H 5.1129449 c -1.44992,0 -2.62819,-1.17828 -2.62819,-2.63172 z"
       style="fill:#ffffff;fill-opacity:1;stroke:#7f7f7f;stroke-width:0.2;stroke-linecap:butt;stroke-linejoin:miter;stroke-miterlimit:8;stroke-dasharray:none;stroke-opacity:1"
       id="path1942"
       inkscape:connector-curvature="0" />
    <path
       d="M 30.985665,290.19219 H 51.554373 V 273.23875 H 30.985665 Z"
       style="fill:#bfbfbf;fill-opacity:1;fill-rule:evenodd;stroke:none;stroke-width:0.35277775"
       id="path1456"
       inkscape:connector-curvature="0" />
    <path
       d="M 30.985665,290.19219 H 51.554373 V 273.23875 H 30.985665 Z"
       style="fill:none;stroke:#000000;stroke-width:0.26458332;stroke-linecap:butt;stroke-linejoin:round;stroke-miterlimit:10;stroke-dasharray:none;stroke-opacity:1"
       id="path1458"
       inkscape:connector-curvature="0" />
    <path
       d="m 39.663995,282.34289 h 3.218148 v -1.49239 h -3.218148 z"
       style="fill:#ffffff;fill-opacity:1;fill-rule:evenodd;stroke:none;stroke-width:0.35277775"
       id="path1470"
       inkscape:connector-curvature="0" />
    <path
       d="m 39.663995,282.34289 h 3.218148 v -1.49239 h -3.218148 z"
       style="fill:none;stroke:#000000;stroke-width:0.26458332;stroke-linecap:butt;stroke-linejoin:round;stroke-miterlimit:10;stroke-dasharray:none;stroke-opacity:1"
       id="path1472"
       inkscape:connector-curvature="0" />
    <path
       d="m 35.684665,288.961 h 11.175648 v -5.53791 H 35.684665 Z"
       style="fill:#ffffff;fill-opacity:1;fill-rule:evenodd;stroke:none;stroke-width:0.35277775"
       id="path1474"
       inkscape:connector-curvature="0" />
    <path
       d="m 35.684665,288.961 h 11.175648 v -5.53791 H 35.684665 Z"
       style="fill:none;stroke:#000000;stroke-width:0.26458332;stroke-linecap:butt;stroke-linejoin:round;stroke-miterlimit:10;stroke-dasharray:none;stroke-opacity:1"
       id="path1476"
       inkscape:connector-curvature="0" />
    <g
       id="g1478"
       transform="matrix(10.936111,0,0,-2.7340277,35.769335,287.53225)">
      <image
         width="1"
         height="1"
         style="image-rendering:optimizeSpeed"
         preserveAspectRatio="none"
         transform="matrix(1,0,0,-1,0,1)"
         xlink:href="data:image/png;base64,iVBORw0KGgoAAAANSUhEUgAAACkAAAAKCAYAAAApWHduAAAABHNCSVQICAgIfAhkiAAAACdJREFUOI1jZGBg+M8wyAHTQDuAGDDqSGqBUUdSC4w6klpg1JHUAgCu0gETfT8UlAAAAABJRU5ErkJggg=="
         mask="url(#mask1480)"
         id="image1484" />
    </g>
    <g
       transform="matrix(0.35277777,0,0,-0.35277777,-53.836221,334.3635)"
       id="g1486">
      <g
         id="g1488"
         clip-path="url(#clipPath1492)">
        <text
           transform="matrix(1,0,0,-1,262.6,134.3)"
           style="font-variant:normal;font-weight:normal;font-size:6px;font-family:ArialMT;-inkscape-font-specification:ArialMT;writing-mode:lr-tb;fill:#000000;fill-opacity:1;fill-rule:nonzero;stroke:none"
           id="text1496">
          <tspan
             x="0 4.776 9.0480003"
             y="0"
             sodipodi:role="line"
             id="tspan1494">MEM</tspan>
        </text>
      </g>
    </g>
    <path
       d="m 33.264605,279.76056 h 7.95726 v -4.91279 h -7.95726 z"
       style="fill:#ffffff;fill-opacity:1;fill-rule:evenodd;stroke:none;stroke-width:0.35277775"
       id="path1516"
       inkscape:connector-curvature="0" />
    <path
       d="m 33.264605,279.76056 h 7.95726 v -4.91279 h -7.95726 z"
       style="fill:none;stroke:#000000;stroke-width:0.26458332;stroke-linecap:butt;stroke-linejoin:round;stroke-miterlimit:10;stroke-dasharray:none;stroke-opacity:1"
       id="path1518"
       inkscape:connector-curvature="0" />
    <g
       id="g1520"
       transform="matrix(7.761111,0,0,-2.1166666,33.388085,278.36003)">
      <image
         width="1"
         height="1"
         style="image-rendering:optimizeSpeed"
         preserveAspectRatio="none"
         transform="matrix(1,0,0,-1,0,1)"
         xlink:href="data:image/png;base64,iVBORw0KGgoAAAANSUhEUgAAAB0AAAAICAYAAAAFiPQnAAAABHNCSVQICAgIfAhkiAAAABtJREFUKJFjZGBg+M9AZ8BEbwtHLR21dGhbCgDBcQEPXXhATgAAAABJRU5ErkJggg=="
         mask="url(#mask1522)"
         id="image1526" />
    </g>
    <g
       transform="matrix(0.35277777,0,0,-0.35277777,-53.836221,334.3635)"
       id="g1528">
      <g
         id="g1530"
         clip-path="url(#clipPath1534)">
        <text
           transform="matrix(1,0,0,-1,255.1,160.3)"
           style="font-variant:normal;font-weight:normal;font-size:3px;font-family:ArialMT;-inkscape-font-specification:ArialMT;writing-mode:lr-tb;fill:#000000;fill-opacity:1;fill-rule:nonzero;stroke:none"
           id="text1538">
          <tspan
             x="0 2.247 4.2480001"
             y="0"
             sodipodi:role="line"
             id="tspan1536">CPU</tspan>
        </text>
      </g>
    </g>
    <path
       d="m 41.322055,279.76056 h 7.957248 v -4.91279 h -7.957248 z"
       style="fill:#ffffff;fill-opacity:1;fill-rule:evenodd;stroke:none;stroke-width:0.35277775"
       id="path1548"
       inkscape:connector-curvature="0" />
    <path
       d="m 41.322055,279.76056 h 7.957248 v -4.91279 h -7.957248 z"
       style="fill:none;stroke:#000000;stroke-width:0.26458332;stroke-linecap:butt;stroke-linejoin:round;stroke-miterlimit:10;stroke-dasharray:none;stroke-opacity:1"
       id="path1550"
       inkscape:connector-curvature="0" />
    <g
       id="g1552"
       transform="matrix(7.761111,0,0,-2.1166666,41.413775,278.36003)">
      <image
         width="1"
         height="1"
         style="image-rendering:optimizeSpeed"
         preserveAspectRatio="none"
         transform="matrix(1,0,0,-1,0,1)"
         xlink:href="data:image/png;base64,iVBORw0KGgoAAAANSUhEUgAAAB0AAAAICAYAAAAFiPQnAAAABHNCSVQICAgIfAhkiAAAABtJREFUKJFjZGBg+M9AZ8BEbwtHLR21dGhbCgDBcQEPXXhATgAAAABJRU5ErkJggg=="
         mask="url(#mask1554)"
         id="image1558" />
    </g>
    <g
       transform="matrix(0.35277777,0,0,-0.35277777,-53.836221,334.3635)"
       id="g1560">
      <g
         id="g1562"
         clip-path="url(#clipPath1566)">
        <text
           transform="matrix(1,0,0,-1,277.88,160.3)"
           style="font-variant:normal;font-weight:normal;font-size:3px;font-family:ArialMT;-inkscape-font-specification:ArialMT;writing-mode:lr-tb;fill:#000000;fill-opacity:1;fill-rule:nonzero;stroke:none"
           id="text1570">
          <tspan
             x="0 2.247 4.2480001"
             y="0"
             sodipodi:role="line"
             id="tspan1568">CPU</tspan>
        </text>
      </g>
    </g>
    <path
       d="m 53.676333,290.08636 h 20.56871 v -16.95344 h -20.56871 z"
       style="fill:#bfbfbf;fill-opacity:1;fill-rule:evenodd;stroke:none;stroke-width:0.35277775"
       id="path1580"
       inkscape:connector-curvature="0" />
    <path
       d="m 53.676333,290.08636 h 20.56871 v -16.95344 h -20.56871 z"
       style="fill:none;stroke:#000000;stroke-width:0.26458332;stroke-linecap:butt;stroke-linejoin:round;stroke-miterlimit:10;stroke-dasharray:none;stroke-opacity:1"
       id="path1582"
       inkscape:connector-curvature="0" />
    <path
       d="m 62.351133,282.23706 h 3.21815 v -1.4924 h -3.21815 z"
       style="fill:#ffffff;fill-opacity:1;fill-rule:evenodd;stroke:none;stroke-width:0.35277775"
       id="path1594"
       inkscape:connector-curvature="0" />
    <path
       d="m 62.351133,282.23706 h 3.21815 v -1.4924 h -3.21815 z"
       style="fill:none;stroke:#000000;stroke-width:0.26458332;stroke-linecap:butt;stroke-linejoin:round;stroke-miterlimit:10;stroke-dasharray:none;stroke-opacity:1"
       id="path1596"
       inkscape:connector-curvature="0" />
    <path
       d="m 58.371803,288.85517 h 11.17565 v -5.53791 h -11.17565 z"
       style="fill:#ffffff;fill-opacity:1;fill-rule:evenodd;stroke:none;stroke-width:0.35277775"
       id="path1598"
       inkscape:connector-curvature="0" />
    <path
       d="m 58.371803,288.85517 h 11.17565 v -5.53791 h -11.17565 z"
       style="fill:none;stroke:#000000;stroke-width:0.26458332;stroke-linecap:butt;stroke-linejoin:round;stroke-miterlimit:10;stroke-dasharray:none;stroke-opacity:1"
       id="path1600"
       inkscape:connector-curvature="0" />
    <g
       id="g1602"
       transform="matrix(10.936111,0,0,-2.7340277,58.523493,287.44406)">
      <image
         width="1"
         height="1"
         style="image-rendering:optimizeSpeed"
         preserveAspectRatio="none"
         transform="matrix(1,0,0,-1,0,1)"
         xlink:href="data:image/png;base64,iVBORw0KGgoAAAANSUhEUgAAACkAAAAKCAYAAAApWHduAAAABHNCSVQICAgIfAhkiAAAACdJREFUOI1jZGBg+M8wyAHTQDuAGDDqSGqBUUdSC4w6klpg1JHUAgCu0gETfT8UlAAAAABJRU5ErkJggg=="
         mask="url(#mask1604)"
         id="image1608" />
    </g>
    <g
       transform="matrix(0.35277777,0,0,-0.35277777,-53.836221,334.3635)"
       id="g1610">
      <g
         id="g1612"
         clip-path="url(#clipPath1616)">
        <text
           transform="matrix(1,0,0,-1,327.15,134.55)"
           style="font-variant:normal;font-weight:normal;font-size:6px;font-family:ArialMT;-inkscape-font-specification:ArialMT;writing-mode:lr-tb;fill:#000000;fill-opacity:1;fill-rule:nonzero;stroke:none"
           id="text1620">
          <tspan
             x="0 4.7519999 8.9940004"
             y="0"
             sodipodi:role="line"
             id="tspan1618">MEM</tspan>
        </text>
      </g>
    </g>
    <path
       d="m 55.955273,279.65472 h 7.95726 v -4.91278 h -7.95726 z"
       style="fill:#ffffff;fill-opacity:1;fill-rule:evenodd;stroke:none;stroke-width:0.35277775"
       id="path1640"
       inkscape:connector-curvature="0" />
    <path
       d="m 55.955273,279.65472 h 7.95726 v -4.91278 h -7.95726 z"
       style="fill:none;stroke:#000000;stroke-width:0.26458332;stroke-linecap:butt;stroke-linejoin:round;stroke-miterlimit:10;stroke-dasharray:none;stroke-opacity:1"
       id="path1642"
       inkscape:connector-curvature="0" />
    <g
       id="g1644"
       transform="matrix(7.761111,0,0,-2.1166666,56.054053,278.27184)">
      <image
         width="1"
         height="1"
         style="image-rendering:optimizeSpeed"
         preserveAspectRatio="none"
         transform="matrix(1,0,0,-1,0,1)"
         xlink:href="data:image/png;base64,iVBORw0KGgoAAAANSUhEUgAAAB0AAAAICAYAAAAFiPQnAAAABHNCSVQICAgIfAhkiAAAABtJREFUKJFjZGBg+M9AZ8BEbwtHLR21dGhbCgDBcQEPXXhATgAAAABJRU5ErkJggg=="
         mask="url(#mask1646)"
         id="image1650" />
    </g>
    <g
       transform="matrix(0.35277777,0,0,-0.35277777,-53.836221,334.3635)"
       id="g1652">
      <g
         id="g1654"
         clip-path="url(#clipPath1658)">
        <text
           transform="matrix(1,0,0,-1,319.38,161.05)"
           style="font-variant:normal;font-weight:normal;font-size:3px;font-family:ArialMT;-inkscape-font-specification:ArialMT;writing-mode:lr-tb;fill:#000000;fill-opacity:1;fill-rule:nonzero;stroke:none"
           id="text1662">
          <tspan
             x="0 2.247 4.2480001"
             y="0"
             sodipodi:role="line"
             id="tspan1660">CPU</tspan>
        </text>
      </g>
    </g>
    <path
       d="m 64.009193,279.65472 h 7.95725 v -4.91278 h -7.95725 z"
       style="fill:#ffffff;fill-opacity:1;fill-rule:evenodd;stroke:none;stroke-width:0.35277775"
       id="path1672"
       inkscape:connector-curvature="0" />
    <path
       d="m 64.009193,279.65472 h 7.95725 v -4.91278 h -7.95725 z"
       style="fill:none;stroke:#000000;stroke-width:0.26458332;stroke-linecap:butt;stroke-linejoin:round;stroke-miterlimit:10;stroke-dasharray:none;stroke-opacity:1"
       id="path1674"
       inkscape:connector-curvature="0" />
    <g
       id="g1676"
       transform="matrix(7.6729164,0,0,-2.1166666,64.167943,278.27184)">
      <image
         width="1"
         height="1"
         style="image-rendering:optimizeSpeed"
         preserveAspectRatio="none"
         transform="matrix(1,0,0,-1,0,1)"
         xlink:href="data:image/png;base64,iVBORw0KGgoAAAANSUhEUgAAAB0AAAAICAYAAAAFiPQnAAAABHNCSVQICAgIfAhkiAAAABtJREFUKJFjZGBg+M9AZ8BEbwtHLR21dGhbCgDBcQEPXXhATgAAAABJRU5ErkJggg=="
         mask="url(#mask1678)"
         id="image1682" />
    </g>
    <g
       transform="matrix(0.35277777,0,0,-0.35277777,-53.836221,334.3635)"
       id="g1684">
      <g
         id="g1686"
         clip-path="url(#clipPath1690)">
        <text
           transform="matrix(1,0,0,-1,342.4,161.05)"
           style="font-variant:normal;font-weight:normal;font-size:3px;font-family:ArialMT;-inkscape-font-specification:ArialMT;writing-mode:lr-tb;fill:#000000;fill-opacity:1;fill-rule:nonzero;stroke:none"
           id="text1694">
          <tspan
             x="0 2.247 4.2480001"
             y="0"
             sodipodi:role="line"
             id="tspan1692">CPU</tspan>
        </text>
      </g>
    </g>
    <path
       d="m 42.881333,281.59853 19.61797,-0.10936"
       style="fill:none;stroke:#000000;stroke-width:0.17638887;stroke-linecap:butt;stroke-linejoin:round;stroke-miterlimit:10;stroke-dasharray:none;stroke-opacity:1"
       id="path1704"
       inkscape:connector-curvature="0" />
    <path
       d="m 79.326803,286.85139 h 10.85144 v -4.33282 h -10.85144 z"
       style="fill:#bfbfbf;fill-opacity:1;fill-rule:evenodd;stroke:none;stroke-width:0.35277775"
       id="path1706"
       inkscape:connector-curvature="0" />
    <path
       d="m 79.326803,286.85139 h 10.85144 v -4.33282 h -10.85144 z"
       style="fill:none;stroke:#000000;stroke-width:0.26458332;stroke-linecap:butt;stroke-linejoin:round;stroke-miterlimit:10;stroke-dasharray:none;stroke-opacity:1"
       id="path1708"
       inkscape:connector-curvature="0" />
    <path
       d="m 79.326803,280.03925 h 10.85144 v -4.33282 h -10.85144 z"
       style="fill:#bfbfbf;fill-opacity:1;fill-rule:evenodd;stroke:none;stroke-width:0.35277775"
       id="path1738"
       inkscape:connector-curvature="0" />
    <path
       d="m 79.326803,280.03925 h 10.85144 v -4.33282 h -10.85144 z"
       style="fill:none;stroke:#000000;stroke-width:0.26458332;stroke-linecap:butt;stroke-linejoin:round;stroke-miterlimit:10;stroke-dasharray:none;stroke-opacity:1"
       id="path1740"
       inkscape:connector-curvature="0" />
    <path
       d="m 65.568463,281.48917 h 10.84792 v -3.61598 h 2.91042"
       style="fill:none;stroke:#000000;stroke-width:0.17638887;stroke-linecap:butt;stroke-linejoin:round;stroke-miterlimit:10;stroke-dasharray:none;stroke-opacity:1"
       id="path1770"
       inkscape:connector-curvature="0" />
    <path
       d="m 65.568463,281.48917 h 10.84792 v 3.19616 h 2.91042"
       style="fill:none;stroke:#000000;stroke-width:0.17638887;stroke-linecap:butt;stroke-linejoin:round;stroke-miterlimit:10;stroke-dasharray:none;stroke-opacity:1"
       id="path1772"
       inkscape:connector-curvature="0" />
    <path
       d="m 90.178243,277.87319 c 2.25072,0 4.50145,0.17992 4.50145,0.35984 0,0.17991 2.25072,0.35983 4.50144,0.35983"
       style="fill:none;stroke:#000000;stroke-width:0.26458332;stroke-linecap:butt;stroke-linejoin:round;stroke-miterlimit:10;stroke-dasharray:none;stroke-opacity:1"
       id="path1774"
       inkscape:connector-curvature="0" />
    <path
       d="m 90.178243,284.68533 c 2.25072,0 4.50145,0.20109 4.50145,0.4057 0,0.20108 2.25072,0.40216 4.50144,0.40216"
       style="fill:none;stroke:#000000;stroke-width:0.26458332;stroke-linecap:butt;stroke-linejoin:round;stroke-miterlimit:10;stroke-dasharray:none;stroke-opacity:1"
       id="path1776"
       inkscape:connector-curvature="0" />
    <path
       d="M 4.3509449,292.80275 H 24.864265 V 282.47694 H 4.3509449 Z"
       style="fill:#bfbfbf;fill-opacity:1;fill-rule:evenodd;stroke:none;stroke-width:0.35277775"
       id="path1778"
       inkscape:connector-curvature="0" />
    <path
       d="M 4.3509449,292.80275 H 24.864265 V 282.47694 H 4.3509449 Z"
       style="fill:none;stroke:#595959;stroke-width:0.26458332;stroke-linecap:butt;stroke-linejoin:round;stroke-miterlimit:10;stroke-dasharray:none;stroke-opacity:1"
       id="path1780"
       inkscape:connector-curvature="0" />
    <g
       id="g1782"
       transform="matrix(20.284722,0,0,-7.4965277,4.4603049,291.41281)">
      <image
         width="1"
         height="1"
         style="image-rendering:optimizeSpeed"
         preserveAspectRatio="none"
         transform="matrix(1,0,0,-1,0,1)"
         xlink:href="data:image/png;base64,iVBORw0KGgoAAAANSUhEUgAAAEwAAAAcCAYAAADLGVncAAAABHNCSVQICAgIfAhkiAAAAFlJREFUaIHt0MENwCAQwLCD/XduVyAvhGRPEGXNzDcc27cDXmNYZFhkWGRYZFhkWGRYZFhkWGRYZFhkWGRYZFhkWGRYZFhkWGRYZFhkWGRYZFhkWGRYZFj0AwA/ATdGaLiqAAAAAElFTkSuQmCC"
         mask="url(#mask1784)"
         id="image1788" />
    </g>
    <g
       transform="matrix(0.35277777,0,0,-0.35277777,-53.836221,334.3635)"
       id="g1790">
      <g
         id="g1792"
         clip-path="url(#clipPath1796)">
        <text
           transform="matrix(1,0,0,-1,187.58,123.03)"
           style="font-variant:normal;font-weight:normal;font-size:7px;font-family:ArialMT;-inkscape-font-specification:ArialMT;writing-mode:lr-tb;fill:#000000;fill-opacity:1;fill-rule:nonzero;stroke:none"
           id="text1800">
          <tspan
             x="0 5.7470002 7.7420001"
             y="0"
             sodipodi:role="line"
             id="tspan1798">MIC</tspan>
        </text>
      </g>
    </g>
    <path
       d="M 6.3265049,288.87281 H 15.224615 V 283.3349 H 6.3265049 Z"
       style="fill:#ffffff;fill-opacity:1;fill-rule:evenodd;stroke:none;stroke-width:0.35277775"
       id="path1810"
       inkscape:connector-curvature="0" />
    <path
       d="M 6.3265049,288.87281 H 15.224615 V 283.3349 H 6.3265049 Z"
       style="fill:none;stroke:#000000;stroke-width:0.26458332;stroke-linecap:butt;stroke-linejoin:round;stroke-miterlimit:10;stroke-dasharray:none;stroke-opacity:1"
       id="path1812"
       inkscape:connector-curvature="0" />
    <g
       id="g1814"
       transform="matrix(8.7312497,0,0,-2.7340277,6.4005849,287.44406)">
      <image
         width="1"
         height="1"
         style="image-rendering:optimizeSpeed"
         preserveAspectRatio="none"
         transform="matrix(1,0,0,-1,0,1)"
         xlink:href="data:image/png;base64,iVBORw0KGgoAAAANSUhEUgAAACEAAAAKCAYAAAA6jzeaAAAABHNCSVQICAgIfAhkiAAAACVJREFUOI1jZGBg+M8wwIBpoB3AwDDqCAQYdQQMjDoCBkYdAQMAYkMBEzYWZ4AAAAAASUVORK5CYII="
         mask="url(#mask1816)"
         id="image1820" />
    </g>
    <g
       transform="matrix(0.35277777,0,0,-0.35277777,-53.836221,334.3635)"
       id="g1822">
      <g
         id="g1824"
         clip-path="url(#clipPath1828)">
        <text
           transform="matrix(1,0,0,-1,178.33,135.3)"
           style="font-variant:normal;font-weight:normal;font-size:4px;font-family:ArialMT;-inkscape-font-specification:ArialMT;writing-mode:lr-tb;fill:#000000;fill-opacity:1;fill-rule:nonzero;stroke:none"
           id="text1832">
          <tspan
             x="0 3.2479999 5.9959998"
             y="0"
             sodipodi:role="line"
             id="tspan1830">MEM</tspan>
        </text>
      </g>
    </g>
    <path
       d="m 17.177945,287.98028 h 3.19532 v -4.64467 h -3.19532 z"
       style="fill:#ffffff;fill-opacity:1;fill-rule:evenodd;stroke:none;stroke-width:0.35277775"
       id="path1842"
       inkscape:connector-curvature="0" />
    <path
       d="m 17.177945,287.98028 h 3.19532 v -4.64467 h -3.19532 z"
       style="fill:none;stroke:#000000;stroke-width:0.17638887;stroke-linecap:butt;stroke-linejoin:miter;stroke-miterlimit:8;stroke-dasharray:none;stroke-opacity:1"
       id="path1844"
       inkscape:connector-curvature="0" />
    <path
       d="m 18.162195,288.83753 h 3.19532 v -4.64467 h -3.19532 z"
       style="fill:#ffffff;fill-opacity:1;fill-rule:evenodd;stroke:none;stroke-width:0.35277775"
       id="path1846"
       inkscape:connector-curvature="0" />
    <path
       d="m 18.162195,288.83753 h 3.19532 v -4.64467 h -3.19532 z"
       style="fill:none;stroke:#000000;stroke-width:0.17638887;stroke-linecap:butt;stroke-linejoin:miter;stroke-miterlimit:8;stroke-dasharray:none;stroke-opacity:1"
       id="path1848"
       inkscape:connector-curvature="0" />
    <path
       d="m 19.149975,289.69478 h 3.19532 v -4.64467 h -3.19532 z"
       style="fill:#ffffff;fill-opacity:1;fill-rule:evenodd;stroke:none;stroke-width:0.35277775"
       id="path1850"
       inkscape:connector-curvature="0" />
    <path
       d="m 19.149975,289.69478 h 3.19532 v -4.64467 h -3.19532 z"
       style="fill:none;stroke:#000000;stroke-width:0.17638887;stroke-linecap:butt;stroke-linejoin:miter;stroke-miterlimit:8;stroke-dasharray:none;stroke-opacity:1"
       id="path1852"
       inkscape:connector-curvature="0" />
    <path
       d="m 20.134225,290.55203 h 3.19532 v -4.64467 h -3.19532 z"
       style="fill:#ffffff;fill-opacity:1;fill-rule:evenodd;stroke:none;stroke-width:0.35277775"
       id="path1854"
       inkscape:connector-curvature="0" />
    <path
       d="m 20.134225,290.55203 h 3.19532 v -4.64467 h -3.19532 z"
       style="fill:none;stroke:#000000;stroke-width:0.17638887;stroke-linecap:butt;stroke-linejoin:miter;stroke-miterlimit:8;stroke-dasharray:none;stroke-opacity:1"
       id="path1856"
       inkscape:connector-curvature="0" />
    <path
       d="m 39.663995,281.59853 h -11.7475 v 6.03955 h -3.05152"
       style="fill:none;stroke:#000000;stroke-width:0.17638887;stroke-linecap:butt;stroke-linejoin:round;stroke-miterlimit:8;stroke-dasharray:none;stroke-opacity:1"
       id="path1858"
       inkscape:connector-curvature="0" />
    <path
       d="M 4.5555549,280.79772 H 25.068875 v -10.3258 H 4.5555549 Z"
       style="fill:#bfbfbf;fill-opacity:1;fill-rule:evenodd;stroke:none;stroke-width:0.35277775"
       id="path1860"
       inkscape:connector-curvature="0" />
    <path
       d="M 4.5555549,280.79772 H 25.068875 v -10.3258 H 4.5555549 Z"
       style="fill:none;stroke:#595959;stroke-width:0.26458332;stroke-linecap:butt;stroke-linejoin:round;stroke-miterlimit:8;stroke-dasharray:none;stroke-opacity:1"
       id="path1862"
       inkscape:connector-curvature="0" />
    <g
       id="g1864"
       transform="matrix(20.284722,0,0,-7.4965277,4.6366949,279.41836)">
      <image
         width="1"
         height="1"
         style="image-rendering:optimizeSpeed"
         preserveAspectRatio="none"
         transform="matrix(1,0,0,-1,0,1)"
         xlink:href="data:image/png;base64,iVBORw0KGgoAAAANSUhEUgAAAEwAAAAcCAYAAADLGVncAAAABHNCSVQICAgIfAhkiAAAAFlJREFUaIHt0MENwCAQwLCD/XduVyAvhGRPEGXNzDcc27cDXmNYZFhkWGRYZFhkWGRYZFhkWGRYZFhkWGRYZFhkWGRYZFhkWGRYZFhkWGRYZFhkWGRYZFj0AwA/ATdGaLiqAAAAAElFTkSuQmCC"
         mask="url(#mask1866)"
         id="image1870" />
    </g>
    <g
       transform="matrix(0.35277777,0,0,-0.35277777,-53.836221,334.3635)"
       id="g1872">
      <g
         id="g1874"
         clip-path="url(#clipPath1878)">
        <text
           transform="matrix(1,0,0,-1,186.83,157.05)"
           style="font-variant:normal;font-weight:normal;font-size:7px;font-family:ArialMT;-inkscape-font-specification:ArialMT;writing-mode:lr-tb;fill:#000000;fill-opacity:1;fill-rule:nonzero;stroke:none"
           id="text1882">
          <tspan
             x="0 5.4949999 10.241"
             y="0"
             sodipodi:role="line"
             id="tspan1880">GPU</tspan>
        </text>
      </g>
    </g>
    <path
       d="m 6.5275849,276.86778 h 8.8981101 v -5.53791 H 6.5275849 Z"
       style="fill:#ffffff;fill-opacity:1;fill-rule:evenodd;stroke:none;stroke-width:0.35277775"
       id="path1892"
       inkscape:connector-curvature="0" />
    <path
       d="m 6.5275849,276.86778 h 8.8981101 v -5.53791 H 6.5275849 Z"
       style="fill:none;stroke:#000000;stroke-width:0.26458332;stroke-linecap:butt;stroke-linejoin:round;stroke-miterlimit:8;stroke-dasharray:none;stroke-opacity:1"
       id="path1894"
       inkscape:connector-curvature="0" />
    <g
       id="g1896"
       transform="matrix(8.6430554,0,0,-2.7340277,6.6651649,275.44961)">
      <image
         width="1"
         height="1"
         style="image-rendering:optimizeSpeed"
         preserveAspectRatio="none"
         transform="matrix(1,0,0,-1,0,1)"
         xlink:href="data:image/png;base64,iVBORw0KGgoAAAANSUhEUgAAACAAAAAKCAYAAADVTVykAAAABHNCSVQICAgIfAhkiAAAACFJREFUOI1jZGBg+M8wgIBpIC0fdcCoA0YdMOoABgYGBgA4swETr4AynQAAAABJRU5ErkJggg=="
         mask="url(#mask1898)"
         id="image1902" />
    </g>
    <g
       transform="matrix(0.35277777,0,0,-0.35277777,-53.836221,334.3635)"
       id="g1904">
      <g
         id="g1906"
         clip-path="url(#clipPath1910)">
        <text
           transform="matrix(1,0,0,-1,179.08,169.3)"
           style="font-variant:normal;font-weight:normal;font-size:4px;font-family:ArialMT;-inkscape-font-specification:ArialMT;writing-mode:lr-tb;fill:#000000;fill-opacity:1;fill-rule:nonzero;stroke:none"
           id="text1914">
          <tspan
             x="0 3.2479999 5.9959998"
             y="0"
             sodipodi:role="line"
             id="tspan1912">MEM</tspan>
        </text>
      </g>
    </g>
    <path
       d="m 17.379025,275.97525 h 3.19532 v -4.64467 h -3.19532 z"
       style="fill:#ffffff;fill-opacity:1;fill-rule:evenodd;stroke:none;stroke-width:0.35277775"
       id="path1924"
       inkscape:connector-curvature="0" />
    <path
       d="m 17.379025,275.97525 h 3.19532 v -4.64467 h -3.19532 z"
       style="fill:none;stroke:#000000;stroke-width:0.17638887;stroke-linecap:butt;stroke-linejoin:miter;stroke-miterlimit:8;stroke-dasharray:none;stroke-opacity:1"
       id="path1926"
       inkscape:connector-curvature="0" />
    <path
       d="m 18.366805,276.8325 h 3.19532 v -4.64467 h -3.19532 z"
       style="fill:#ffffff;fill-opacity:1;fill-rule:evenodd;stroke:none;stroke-width:0.35277775"
       id="path1928"
       inkscape:connector-curvature="0" />
    <path
       d="m 18.366805,276.8325 h 3.19532 v -4.64467 h -3.19532 z"
       style="fill:none;stroke:#000000;stroke-width:0.17638887;stroke-linecap:butt;stroke-linejoin:miter;stroke-miterlimit:8;stroke-dasharray:none;stroke-opacity:1"
       id="path1930"
       inkscape:connector-curvature="0" />
    <path
       d="m 19.351055,277.68975 h 3.19532 v -4.64467 h -3.19532 z"
       style="fill:#ffffff;fill-opacity:1;fill-rule:evenodd;stroke:none;stroke-width:0.35277775"
       id="path1932"
       inkscape:connector-curvature="0" />
    <path
       d="m 19.351055,277.68975 h 3.19532 v -4.64467 h -3.19532 z"
       style="fill:none;stroke:#000000;stroke-width:0.17638887;stroke-linecap:butt;stroke-linejoin:miter;stroke-miterlimit:8;stroke-dasharray:none;stroke-opacity:1"
       id="path1934"
       inkscape:connector-curvature="0" />
    <path
       d="m 20.338835,278.547 h 3.19532 v -4.64467 h -3.19532 z"
       style="fill:#ffffff;fill-opacity:1;fill-rule:evenodd;stroke:none;stroke-width:0.35277775"
       id="path1936"
       inkscape:connector-curvature="0" />
    <path
       d="m 20.338835,278.547 h 3.19532 v -4.64467 h -3.19532 z"
       style="fill:none;stroke:#000000;stroke-width:0.17638887;stroke-linecap:butt;stroke-linejoin:miter;stroke-miterlimit:8;stroke-dasharray:none;stroke-opacity:1"
       id="path1938"
       inkscape:connector-curvature="0" />
    <path
       d="m 39.561685,281.59853 h -11.64519 v -5.96547 h -2.94922"
       style="fill:none;stroke:#000000;stroke-width:0.17638887;stroke-linecap:butt;stroke-linejoin:round;stroke-miterlimit:8;stroke-dasharray:none;stroke-opacity:1"
       id="path1940"
       inkscape:connector-curvature="0" />
    <path
       d="m 51.556133,212.46471 c 0,-2.02142 1.63689,-3.65831 3.65831,-3.65831 h 28.35275 c 2.02141,0 3.66183,1.63689 3.66183,3.65831 v 33.40453 c 0,2.02141 -1.64042,3.66183 -3.66183,3.66183 h -28.35275 c -2.02142,0 -3.65831,-1.64042 -3.65831,-3.66183 z"
       style="fill:#ffffff;fill-opacity:1;stroke:#7f7f7f;stroke-width:0.2;stroke-linecap:butt;stroke-linejoin:miter;stroke-miterlimit:8;stroke-dasharray:none;stroke-opacity:1"
       id="path2004"
       inkscape:connector-curvature="0" />
    <path
       d="m 69.470193,213.05385 c 0,-0.73378 0.58208,-1.32645 1.30527,-1.32645 0.71967,0 1.30175,0.59267 1.30175,1.32645 0,0.73025 -0.58208,1.32291 -1.30175,1.32291 -0.72319,0 -1.30527,-0.59266 -1.30527,-1.32291 z"
       style="fill:#ffffff;fill-opacity:1;fill-rule:evenodd;stroke:none;stroke-width:0.35277775"
       id="path1944"
       inkscape:connector-curvature="0" />
    <path
       d="m 69.470193,213.05385 c 0,-0.73378 0.58208,-1.32645 1.30527,-1.32645 0.71967,0 1.30175,0.59267 1.30175,1.32645 0,0.73025 -0.58208,1.32291 -1.30175,1.32291 -0.72319,0 -1.30527,-0.59266 -1.30527,-1.32291 z"
       style="fill:none;stroke:#dc2300;stroke-width:0.79001051;stroke-linecap:butt;stroke-linejoin:miter;stroke-miterlimit:8;stroke-dasharray:none;stroke-opacity:1"
       id="path1946"
       inkscape:connector-curvature="0" />
    <path
       d="m 70.736663,213.03268 -13.34558,6.62517"
       style="fill:none;stroke:#dc2300;stroke-width:0.79001051;stroke-linecap:butt;stroke-linejoin:miter;stroke-miterlimit:8;stroke-dasharray:none;stroke-opacity:1"
       id="path1948"
       inkscape:connector-curvature="0" />
    <path
       d="m 70.719023,213.03268 -4.2545,6.62517"
       style="fill:none;stroke:#dc2300;stroke-width:0.79001051;stroke-linecap:butt;stroke-linejoin:miter;stroke-miterlimit:8;stroke-dasharray:none;stroke-opacity:1"
       id="path1950"
       inkscape:connector-curvature="0" />
    <path
       d="m 70.719023,213.03268 4.55436,6.62517"
       style="fill:none;stroke:#dc2300;stroke-width:0.79001051;stroke-linecap:butt;stroke-linejoin:miter;stroke-miterlimit:8;stroke-dasharray:none;stroke-opacity:1"
       id="path1952"
       inkscape:connector-curvature="0" />
    <path
       d="m 70.719023,213.03268 12.66472,6.62517"
       style="fill:none;stroke:#dc2300;stroke-width:0.79001051;stroke-linecap:butt;stroke-linejoin:miter;stroke-miterlimit:8;stroke-dasharray:none;stroke-opacity:1"
       id="path1954"
       inkscape:connector-curvature="0" />
    <path
       d="m 56.103443,219.65785 c 0,-0.73025 0.58208,-1.32292 1.29469,-1.32292 0.71614,0 1.29822,0.59267 1.29822,1.32292 0,0.73378 -0.58208,1.32644 -1.29822,1.32644 -0.71261,0 -1.29469,-0.59266 -1.29469,-1.32644 z"
       style="fill:#ffffff;fill-opacity:1;fill-rule:evenodd;stroke:none;stroke-width:0.35277775"
       id="path1956"
       inkscape:connector-curvature="0" />
    <path
       d="m 56.103443,219.65785 c 0,-0.73025 0.58208,-1.32292 1.29469,-1.32292 0.71614,0 1.29822,0.59267 1.29822,1.32292 0,0.73378 -0.58208,1.32644 -1.29822,1.32644 -0.71261,0 -1.29469,-0.59266 -1.29469,-1.32644 z"
       style="fill:none;stroke:#99ccff;stroke-width:0.79001051;stroke-linecap:butt;stroke-linejoin:miter;stroke-miterlimit:8;stroke-dasharray:none;stroke-opacity:1"
       id="path1958"
       inkscape:connector-curvature="0" />
    <path
       d="m 59.998103,223.63365 c -1.30175,0.63148 -2.60702,1.25942 -2.60702,1.88736 0,0.63148 2.60702,1.10067 2.60702,1.88737 0,0.78669 -2.17311,2.36008 -2.60702,2.8328"
       style="fill:none;stroke:#808080;stroke-width:1.59000468;stroke-linecap:butt;stroke-linejoin:round;stroke-miterlimit:8;stroke-dasharray:none;stroke-opacity:1"
       id="path1960"
       inkscape:connector-curvature="0" />
    <path
       d="m 57.408713,219.65785 -1.34055,3.9758"
       style="fill:none;stroke:#99ccff;stroke-width:0.79001051;stroke-linecap:butt;stroke-linejoin:miter;stroke-miterlimit:8;stroke-dasharray:none;stroke-opacity:1"
       id="path1962"
       inkscape:connector-curvature="0" />
    <path
       d="m 57.391083,219.65785 2.58938,3.9758"
       style="fill:none;stroke:#99ccff;stroke-width:0.79001051;stroke-linecap:butt;stroke-linejoin:miter;stroke-miterlimit:8;stroke-dasharray:none;stroke-opacity:1"
       id="path1964"
       inkscape:connector-curvature="0" />
    <path
       d="m 56.103443,223.63365 c -1.30175,0.63148 -2.60703,1.25942 -2.60703,1.88736 0,0.63148 2.60703,1.10067 2.60703,1.88737 0,0.78669 -2.17311,2.36008 -2.60703,2.8328"
       style="fill:none;stroke:#808080;stroke-width:1.59000468;stroke-linecap:butt;stroke-linejoin:round;stroke-miterlimit:8;stroke-dasharray:none;stroke-opacity:1"
       id="path1966"
       inkscape:connector-curvature="0" />
    <path
       d="m 65.198053,219.65785 c 0,-0.73025 0.57855,-1.32292 1.29469,-1.32292 0.71614,0 1.2947,0.59267 1.2947,1.32292 0,0.73378 -0.57856,1.32644 -1.2947,1.32644 -0.71614,0 -1.29469,-0.59266 -1.29469,-1.32644 z"
       style="fill:#ffffff;fill-opacity:1;fill-rule:evenodd;stroke:none;stroke-width:0.35277775"
       id="path1968"
       inkscape:connector-curvature="0" />
    <path
       d="m 65.198053,219.65785 c 0,-0.73025 0.57855,-1.32292 1.29469,-1.32292 0.71614,0 1.2947,0.59267 1.2947,1.32292 0,0.73378 -0.57856,1.32644 -1.2947,1.32644 -0.71614,0 -1.29469,-0.59266 -1.29469,-1.32644 z"
       style="fill:none;stroke:#99ccff;stroke-width:0.79001051;stroke-linecap:butt;stroke-linejoin:miter;stroke-miterlimit:8;stroke-dasharray:none;stroke-opacity:1"
       id="path1970"
       inkscape:connector-curvature="0" />
    <path
       d="m 69.071553,223.63365 c -1.2947,0.63148 -2.58939,1.25942 -2.58939,1.88736 0,0.63148 2.58939,1.10067 2.58939,1.88737 0,0.78669 -2.15547,2.36008 -2.58939,2.8328"
       style="fill:none;stroke:#808080;stroke-width:1.59000468;stroke-linecap:butt;stroke-linejoin:round;stroke-miterlimit:8;stroke-dasharray:none;stroke-opacity:1"
       id="path1972"
       inkscape:connector-curvature="0" />
    <path
       d="m 66.503333,219.65785 -1.34409,3.9758"
       style="fill:none;stroke:#99ccff;stroke-width:0.79001051;stroke-linecap:butt;stroke-linejoin:miter;stroke-miterlimit:8;stroke-dasharray:none;stroke-opacity:1"
       id="path1974"
       inkscape:connector-curvature="0" />
    <path
       d="m 66.482163,219.65785 2.58939,3.9758"
       style="fill:none;stroke:#99ccff;stroke-width:0.79001051;stroke-linecap:butt;stroke-linejoin:miter;stroke-miterlimit:8;stroke-dasharray:none;stroke-opacity:1"
       id="path1976"
       inkscape:connector-curvature="0" />
    <path
       d="m 65.176883,223.63365 c -1.29469,0.63148 -2.58939,1.25942 -2.58939,1.88736 0,0.63148 2.58939,1.10067 2.58939,1.88737 0,0.78669 -2.15547,2.36008 -2.58939,2.8328"
       style="fill:none;stroke:#808080;stroke-width:1.59000468;stroke-linecap:butt;stroke-linejoin:round;stroke-miterlimit:8;stroke-dasharray:none;stroke-opacity:1"
       id="path1978"
       inkscape:connector-curvature="0" />
    <path
       d="m 73.950463,219.65785 c 0,-0.73025 0.57856,-1.32292 1.2947,-1.32292 0.71614,0 1.29469,0.59267 1.29469,1.32292 0,0.73378 -0.57855,1.32644 -1.29469,1.32644 -0.71614,0 -1.2947,-0.59266 -1.2947,-1.32644 z"
       style="fill:#ffffff;fill-opacity:1;fill-rule:evenodd;stroke:none;stroke-width:0.35277775"
       id="path1980"
       inkscape:connector-curvature="0" />
    <path
       d="m 73.950463,219.65785 c 0,-0.73025 0.57856,-1.32292 1.2947,-1.32292 0.71614,0 1.29469,0.59267 1.29469,1.32292 0,0.73378 -0.57855,1.32644 -1.29469,1.32644 -0.71614,0 -1.2947,-0.59266 -1.2947,-1.32644 z"
       style="fill:none;stroke:#99ccff;stroke-width:0.79001051;stroke-linecap:butt;stroke-linejoin:miter;stroke-miterlimit:8;stroke-dasharray:none;stroke-opacity:1"
       id="path1982"
       inkscape:connector-curvature="0" />
    <path
       d="m 77.559383,223.63365 c -1.15358,0.63148 -2.30364,1.25942 -2.30364,1.88736 0,0.63148 2.30364,1.10067 2.30364,1.88737 0,0.78669 -1.91911,2.36008 -2.30364,2.8328"
       style="fill:none;stroke:#808080;stroke-width:1.59000468;stroke-linecap:butt;stroke-linejoin:round;stroke-miterlimit:8;stroke-dasharray:none;stroke-opacity:1"
       id="path1984"
       inkscape:connector-curvature="0" />
    <path
       d="m 75.273383,219.65785 -1.34408,3.9758"
       style="fill:none;stroke:#99ccff;stroke-width:0.79001051;stroke-linecap:butt;stroke-linejoin:miter;stroke-miterlimit:8;stroke-dasharray:none;stroke-opacity:1"
       id="path1986"
       inkscape:connector-curvature="0" />
    <path
       d="m 75.255743,219.65785 2.30364,3.9758"
       style="fill:none;stroke:#99ccff;stroke-width:0.79001051;stroke-linecap:butt;stroke-linejoin:miter;stroke-miterlimit:8;stroke-dasharray:none;stroke-opacity:1"
       id="path1988"
       inkscape:connector-curvature="0" />
    <path
       d="m 73.950463,223.63365 c -1.13594,0.63148 -2.26836,1.25942 -2.26836,1.88736 0,0.63148 2.26836,1.10067 2.26836,1.88737 0,0.78669 -1.89088,2.36008 -2.26836,2.8328"
       style="fill:none;stroke:#808080;stroke-width:1.59000468;stroke-linecap:butt;stroke-linejoin:round;stroke-miterlimit:8;stroke-dasharray:none;stroke-opacity:1"
       id="path1990"
       inkscape:connector-curvature="0" />
    <path
       d="m 82.078463,219.65785 c 0,-0.73025 0.57856,-1.32292 1.2947,-1.32292 0.71614,0 1.29469,0.59267 1.29469,1.32292 0,0.73378 -0.57855,1.32644 -1.29469,1.32644 -0.71614,0 -1.2947,-0.59266 -1.2947,-1.32644 z"
       style="fill:#ffffff;fill-opacity:1;fill-rule:evenodd;stroke:none;stroke-width:0.35277775"
       id="path1992"
       inkscape:connector-curvature="0" />
    <path
       d="m 82.078463,219.65785 c 0,-0.73025 0.57856,-1.32292 1.2947,-1.32292 0.71614,0 1.29469,0.59267 1.29469,1.32292 0,0.73378 -0.57855,1.32644 -1.29469,1.32644 -0.71614,0 -1.2947,-0.59266 -1.2947,-1.32644 z"
       style="fill:none;stroke:#99ccff;stroke-width:0.79001051;stroke-linecap:butt;stroke-linejoin:miter;stroke-miterlimit:8;stroke-dasharray:none;stroke-opacity:1"
       id="path1994"
       inkscape:connector-curvature="0" />
    <path
       d="m 85.652103,223.63365 c -1.13594,0.63148 -2.26836,1.25942 -2.26836,1.88736 0,0.63148 2.26836,1.10067 2.26836,1.88737 0,0.78669 -1.89089,2.36008 -2.26836,2.8328"
       style="fill:none;stroke:#808080;stroke-width:1.59000468;stroke-linecap:butt;stroke-linejoin:round;stroke-miterlimit:8;stroke-dasharray:none;stroke-opacity:1"
       id="path1996"
       inkscape:connector-curvature="0" />
    <path
       d="m 83.401383,219.65785 -1.34055,3.9758"
       style="fill:none;stroke:#99ccff;stroke-width:0.79001051;stroke-linecap:butt;stroke-linejoin:miter;stroke-miterlimit:8;stroke-dasharray:none;stroke-opacity:1"
       id="path1998"
       inkscape:connector-curvature="0" />
    <path
       d="m 83.383743,219.65785 2.26836,3.9758"
       style="fill:none;stroke:#99ccff;stroke-width:0.79001051;stroke-linecap:butt;stroke-linejoin:miter;stroke-miterlimit:8;stroke-dasharray:none;stroke-opacity:1"
       id="path2000"
       inkscape:connector-curvature="0" />
    <path
       d="m 82.078463,223.63365 c -1.13594,0.63148 -2.26836,1.25942 -2.26836,1.88736 0,0.63148 2.26836,1.10067 2.26836,1.88737 0,0.78669 -1.89088,2.36008 -2.26836,2.8328"
       style="fill:none;stroke:#808080;stroke-width:1.59000468;stroke-linecap:butt;stroke-linejoin:round;stroke-miterlimit:8;stroke-dasharray:none;stroke-opacity:1"
       id="path2002"
       inkscape:connector-curvature="0" />
    <g
       id="g2006"
       transform="matrix(33.425694,0,0,-35.895137,52.702663,247.13924)">
      <image
         width="1"
         height="1"
         style="image-rendering:optimizeSpeed"
         preserveAspectRatio="none"
         transform="matrix(1,0,0,-1,0,1)"
         xlink:href="data:image/png;base64,iVBORw0KGgoAAAANSUhEUgAAAH4AAACHCAYAAADQvu1ZAAAABHNCSVQICAgIfAhkiAAAAU5JREFUeJzt0UERACAMwLCBf88gY48mCnrXMzNvyLnbAewwPsr4KOOjjI8yPsr4KOOjjI8yPsr4KOOjjI8yPsr4KOOjjI8yPsr4KOOjjI8yPsr4KOOjjI8yPsr4KOOjjI8yPsr4KOOjjI8yPsr4KOOjjI8yPsr4KOOjjI8yPsr4KOOjjI8yPsr4KOOjjI8yPsr4KOOjjI8yPsr4KOOjjI8yPsr4KOOjjI8yPsr4KOOjjI8yPsr4KOOjjI8yPsr4KOOjjI8yPsr4KOOjjI8yPsr4KOOjjI8yPsr4KOOjjI8yPsr4KOOjjI8yPsr4KOOjjI8yPsr4KOOjjI8yPsr4KOOjjI8yPsr4KOOjjI8yPsr4KOOjjI8yPsr4KOOjjI8yPsr4KOOjjI8yPsr4KOOjjI8yPsr4KOOjjI8yPsr4KOOjjI8yPsr4KOOjjI8yPuoD0ncCDb33c3gAAAAASUVORK5CYII="
         mask="url(#mask2008)"
         id="image2012" />
    </g>
    <g
       transform="matrix(0.35277777,0,0,-0.35277777,-53.836221,340.71354)"
       id="g2014">
      <g
         id="g2016"
         clip-path="url(#clipPath2020)">
        <text
           transform="matrix(1,0,0,-1,330.15,267.08)"
           style="font-style:italic;font-variant:normal;font-weight:normal;font-size:9px;font-family:Arial;-inkscape-font-specification:Arial-ItalicMT;writing-mode:lr-tb;fill:#000000;fill-opacity:1;fill-rule:nonzero;stroke:none"
           id="text2024">
          <tspan
             x="0 6.5 11.506 16.511999 19.016001 24.021999 28.524 31.000999 33.505001"
             y="0"
             sodipodi:role="line"
             id="tspan2022">Context 2</tspan>
        </text>
      </g>
    </g>
    <g
       id="g2036"
       transform="matrix(37.394444,0,0,-35.54236,8.605445,246.87465)">
      <image
         width="1"
         height="1"
         style="image-rendering:optimizeSpeed"
         preserveAspectRatio="none"
         transform="matrix(1,0,0,-1,0,1)"
         xlink:href="data:image/png;base64,iVBORw0KGgoAAAANSUhEUgAAAI0AAACGCAYAAADgmQlmAAAABHNCSVQICAgIfAhkiAAAAV5JREFUeJzt0kENACAQwLAD/55Bw16EpFWwx9bMnIFgvw7gP6YhMw2ZachMQ2YaMtOQmYbMNGSmITMNmWnITENmGjLTkJmGzDRkpiEzDZlpyExDZhoy05CZhsw0ZKYhMw2ZachMQ2YaMtOQmYbMNGSmITMNmWnITENmGjLTkJmGzDRkpiEzDZlpyExDZhoy05CZhsw0ZKYhMw2ZachMQ2YaMtOQmYbMNGSmITMNmWnITENmGjLTkJmGzDRkpiEzDZlpyExDZhoy05CZhsw0ZKYhMw2ZachMQ2YaMtOQmYbMNGSmITMNmWnITENmGjLTkJmGzDRkpiEzDZlpyExDZhoy05CZhsw0ZKYhMw2ZachMQ2YaMtOQmYbMNGSmITMNmWnITENmGjLTkJmGzDRkpiEzDZlpyExDZhoy05CZhsw0ZKYhMw2ZachMQ2YaMtOQmYbMNGSmITMNmWnITEN2AaHWAgvauTyuAAAAAElFTkSuQmCC"
         mask="url(#mask2038)"
         id="image2042" />
    </g>
    <g
       transform="matrix(0.35277777,0,0,-0.35277777,-53.836221,340.71354)"
       id="g2044">
      <g
         id="g2046"
         clip-path="url(#clipPath2050)">
        <text
           transform="matrix(1,0,0,-1,210.85,267.58)"
           style="font-style:italic;font-variant:normal;font-weight:normal;font-size:9px;font-family:Arial;-inkscape-font-specification:Arial-ItalicMT;writing-mode:lr-tb;fill:#000000;fill-opacity:1;fill-rule:nonzero;stroke:none"
           id="text2054">
          <tspan
             x="0 6.5 11.506 16.511999 19.016001 24.021999 28.524 31.000999 33.505001"
             y="0"
             sodipodi:role="line"
             id="tspan2052">Context 1</tspan>
        </text>
      </g>
    </g>
    <path
       d="m 10.542195,241.62532 h 33.550928 v -6.79203 H 10.542195 Z"
       style="fill:#ffc000;fill-opacity:1;fill-rule:evenodd;stroke:none;stroke-width:0.35277775"
       id="path2128"
       inkscape:connector-curvature="0" />
    <path
       d="m 10.542195,241.62532 h 33.550928 v -6.79203 H 10.542195 Z"
       style="fill:none;stroke:#000000;stroke-width:0.09000067;stroke-linecap:butt;stroke-linejoin:miter;stroke-miterlimit:8;stroke-dasharray:none;stroke-opacity:1"
       id="path2130"
       inkscape:connector-curvature="0" />
    <g
       transform="matrix(0.35277777,0,0,-0.35277777,-53.836221,340.18437)"
       id="g2140">
      <text
         xml:space="preserve"
         style="font-style:normal;font-weight:normal;font-size:30px;line-height:18.75px;font-family:sans-serif;letter-spacing:0px;word-spacing:0px;fill:#000000;fill-opacity:1;stroke:none;stroke-width:0.75"
         x="209.80649"
         y="-285.57178"
         id="text1172"
         transform="scale(1,-1)"><tspan
           sodipodi:role="line"
           id="tspan1170"
           x="209.80649"
           y="-285.57178"
           style="font-style:normal;font-variant:normal;font-weight:normal;font-stretch:normal;font-size:11px;font-family:'Inria Sans';-inkscape-font-specification:'Inria Sans';stroke-width:0.75">Intel TBB</tspan></text>
    </g>
    <path
       d="m 52.688553,241.62532 h 33.55093 v -6.79203 h -33.55093 z"
       style="fill:#dae3f3;fill-opacity:1;fill-rule:evenodd;stroke:none;stroke-width:0.35277775"
       id="path2160"
       inkscape:connector-curvature="0" />
    <path
       d="m 52.688553,241.62532 h 33.55093 v -6.79203 h -33.55093 z"
       style="fill:none;stroke:#000000;stroke-width:0.09000067;stroke-linecap:butt;stroke-linejoin:miter;stroke-miterlimit:8;stroke-dasharray:none;stroke-opacity:1"
       id="path2162"
       inkscape:connector-curvature="0" />
    <g
       transform="matrix(0.35277777,0,0,-0.35277777,-53.836221,332.24682)"
       id="g2172">
      <g
         id="g2174"
         clip-path="url(#clipPath2178)">
        <text
           transform="matrix(1,0,0,-1,329.65,285.08)"
           style="font-variant:normal;font-weight:normal;font-size:11px;font-family:Tahoma;-inkscape-font-specification:Tahoma;writing-mode:lr-tb;fill:#000000;fill-opacity:1;fill-rule:nonzero;stroke:none"
           id="text2182">
          <tspan
             sodipodi:role="line"
             id="tspan2180"
             x="0"
             y="9.7324219" />
        </text>
      </g>
    </g>
    <text
       xml:space="preserve"
       style="font-style:normal;font-weight:normal;font-size:10.58333302px;line-height:6.61458302px;font-family:sans-serif;letter-spacing:0px;word-spacing:0px;fill:#000000;fill-opacity:1;stroke:none;stroke-width:0.26458332"
       x="32.505955"
       y="203.20494"
       id="text1188"><tspan
         sodipodi:role="line"
         id="tspan1186"
         x="32.505955"
         y="203.20494"
         style="font-size:3.88055563px;stroke-width:0.26458332">HPC Applications</tspan></text>
    <text
       xml:space="preserve"
       style="font-style:normal;font-weight:normal;font-size:10.58333302px;line-height:6.61458302px;font-family:sans-serif;letter-spacing:0px;word-spacing:0px;fill:#000000;fill-opacity:1;stroke:none;stroke-width:0.26458332"
       x="62.933037"
       y="239.62311"
       id="text1224"><tspan
         sodipodi:role="line"
         id="tspan1222"
         x="62.933037"
         y="239.62311"
         style="font-style:normal;font-variant:normal;font-weight:normal;font-stretch:normal;font-size:3.88055563px;font-family:'Inria Sans';-inkscape-font-specification:'Inria Sans';stroke-width:0.26458332">OpenMP</tspan></text>
    <text
       xml:space="preserve"
       style="font-style:normal;font-weight:normal;font-size:10.58333302px;line-height:6.61458302px;font-family:sans-serif;letter-spacing:0px;word-spacing:0px;fill:#000000;fill-opacity:1;stroke:none;stroke-width:0.26458332"
       x="82.327942"
       y="279.14062"
       id="text1228"><tspan
         sodipodi:role="line"
         id="tspan1226"
         x="82.327942"
         y="279.14062"
         style="font-style:normal;font-variant:normal;font-weight:normal;font-stretch:normal;font-size:3.52777767px;font-family:'Inria Sans';-inkscape-font-specification:'Inria Sans';stroke-width:0.26458332">NIC</tspan></text>
    <text
       xml:space="preserve"
       style="font-style:normal;font-weight:normal;font-size:10.58333302px;line-height:6.61458349px;font-family:sans-serif;letter-spacing:0px;word-spacing:0px;fill:#000000;fill-opacity:1;stroke:none;stroke-width:0.26458332"
       x="82.335915"
       y="285.77826"
       id="text1228-1"><tspan
         sodipodi:role="line"
         id="tspan1226-5"
         x="82.335915"
         y="285.77826"
         style="font-style:normal;font-variant:normal;font-weight:normal;font-stretch:normal;font-size:3.52777767px;font-family:'Inria Sans';-inkscape-font-specification:'Inria Sans';stroke-width:0.26458332">NIC</tspan></text>
    <path
       style="fill:none;stroke:#000000;stroke-width:0.34999999;stroke-linecap:butt;stroke-linejoin:miter;stroke-miterlimit:4;stroke-dasharray:none;stroke-opacity:1"
       d="m 41.258463,279.49498 v 1.42923"
       id="path1254"
       inkscape:connector-curvature="0" />
    <path
       style="fill:none;stroke:#000000;stroke-width:0.3229194;stroke-linecap:butt;stroke-linejoin:miter;stroke-miterlimit:4;stroke-dasharray:none;stroke-opacity:1"
       d="m 41.293899,282.30027 v 1.21661"
       id="path1254-9"
       inkscape:connector-curvature="0" />
    <path
       style="fill:none;stroke:#000000;stroke-width:0.34999999;stroke-linecap:butt;stroke-linejoin:miter;stroke-miterlimit:4;stroke-dasharray:none;stroke-opacity:1"
       d="m 63.972471,279.37095 v 1.42923"
       id="path1254-91"
       inkscape:connector-curvature="0" />
    <path
       style="fill:none;stroke:#000000;stroke-width:0.31498408;stroke-linecap:butt;stroke-linejoin:miter;stroke-miterlimit:4;stroke-dasharray:none;stroke-opacity:1"
       d="m 63.972471,282.18215 v 1.15756"
       id="path1254-4"
       inkscape:connector-curvature="0" />
    <text
       xml:space="preserve"
       style="font-style:normal;font-weight:normal;font-size:10.58333302px;line-height:6.61458302px;font-family:sans-serif;letter-spacing:0px;word-spacing:0px;fill:#1229b5;fill-opacity:1;stroke:none;stroke-width:0.26458332"
       x="41.694046"
       y="192.76489"
       id="text1191"><tspan
         sodipodi:role="line"
         id="tspan1189"
         x="41.694046"
         y="192.76489"
         style="font-size:3.88055563px;fill:#1229b5;fill-opacity:1;stroke-width:0.26458332">Process</tspan></text>
  </g>
</svg>
